﻿√рейд;“овар;январь;‘евраль;ћарт;јпрель;ћай;»юнь;»юль;јвгуст;—ент¤брь;ќкт¤брь;Ќо¤брь;ƒекабрь
1;—мартфон Xiaomi Mi 6 Blue 128GB;2;2;2;2;2;2;2;;;;;
1;—мартфон Xiaomi Mi 6 Black 64GB;2;2;2;2;2;2;2;;;;;
1;—мартфон Xiaomi Mi A1 Black 32GB;4;4;4;4;4;4;4;;;;;
1;—мартфон Xiaomi Mi A1 Gold 32GB;4;4;4;4;4;4;4;;;;;
1;—мартфон Xiaomi Mi A1 Red 32GB;4;4;4;4;4;4;4;;;;;
1;—мартфон Xiaomi Mi A1 Black 64GB;4;4;4;4;4;4;4;;;;;
1;—мартфон Xiaomi Mi A1 Gold 64GB;4;4;4;4;4;4;4;;;;;
1;—мартфон Xiaomi Mi A1 Red 64GB;4;4;4;4;4;4;4;;;;;
1;—мартфон Xiaomi Mi A1 Rose Gold 64GB;4;4;4;4;4;4;4;;;;;
1;—мартфон Xiaomi Mi MIX 2 Special Edition White 128GB;2;2;2;2;2;2;2;;;;;
1;—мартфон Xiaomi Mi MIX 2 Black 64GB;2;2;2;2;2;2;2;;;;;
1;—мартфон Xiaomi Mi MIX 2s Black 64GB;2;2;2;2;2;2;2;;;;;
1;—мартфон Xiaomi Mi Note 2 Black 64GB;4;4;4;4;4;4;4;;;;;
1;—мартфон Xiaomi Mi Note 2 Silver Black 64GB;4;4;4;4;4;4;4;;;;;
1;—мартфон Xiaomi Redmi 4A Gold 16GB;4;4;4;4;4;4;4;;;;;
1;—мартфон Xiaomi Redmi 4A Gray 16GB;4;4;4;4;4;4;4;;;;;
1;—мартфон Xiaomi Redmi 4A Rose Gold 16GB;4;4;4;4;4;4;4;;;;;
1;—мартфон Xiaomi Redmi 4A Gold 32GB;4;4;4;4;4;4;4;;;;;
1;—мартфон Xiaomi Redmi 4A Gray 32GB;4;4;4;4;4;4;4;;;;;
1;—мартфон Xiaomi Redmi 4X Black 16GB;4;4;4;4;4;4;4;;;;;
1;—мартфон Xiaomi Redmi 4X Gold 16GB;4;4;4;4;4;4;4;;;;;
1;—мартфон Xiaomi Redmi 4X Pink 16GB;4;4;4;4;4;4;4;;;;;
1;—мартфон Xiaomi Redmi 4X Black 32GB;4;4;4;4;4;4;4;;;;;
1;—мартфон Xiaomi Redmi 4X Gold 32GB;4;4;4;4;4;4;4;;;;;
1;—мартфон Xiaomi Redmi 5 16GB Black;4;4;4;4;4;4;4;;;;;
1;—мартфон Xiaomi Redmi 5 16GB Blue;4;4;4;4;4;4;4;;;;;
1;—мартфон Xiaomi Redmi 5 16GB Gold;4;4;4;4;4;4;4;;;;;
1;—мартфон Xiaomi Redmi 5 32GB Black;4;4;4;4;4;4;4;;;;;
1;—мартфон Xiaomi Redmi 5 32GB Blue;4;4;4;4;4;4;4;;;;;
1;—мартфон Xiaomi Redmi 5 32GB Gold;4;4;4;4;4;4;4;;;;;
1;—мартфон Xiaomi Redmi 5 Plus 32GB Black;4;4;4;4;4;4;4;;;;;
1;—мартфон Xiaomi Redmi 5 Plus 32GB Gold;4;4;4;4;4;4;4;;;;;
1;—мартфон Xiaomi Redmi 5 Plus 64GB Black;4;4;4;4;4;4;4;;;;;
1;—мартфон Xiaomi Redmi 5 Plus 64GB Gold;4;4;4;4;4;4;4;;;;;
1;—мартфон Xiaomi Redmi 5A 16GB Gold;4;4;4;4;4;4;4;;;;;
1;—мартфон Xiaomi Redmi 5A 16GB Gray;4;4;4;4;4;4;4;;;;;
1;—мартфон Xiaomi Redmi 5A 16GB Rose Gold;4;4;4;4;4;4;4;;;;;
1;—мартфон Xiaomi Redmi Note 4 Black 32GB;4;4;4;4;4;4;4;;;;;
1;—мартфон Xiaomi Redmi Note 4 Gold 32GB;4;4;4;4;4;4;4;;;;;
1;—мартфон Xiaomi Redmi Note 4 Gray 32GB;4;4;4;4;4;4;4;;;;;
1;—мартфон Xiaomi Redmi Note 4 Black 64GB(QS);4;4;4;4;4;4;4;;;;;
1;—мартфон Xiaomi Redmi Note 4 Gold 64GB(QS);4;4;4;4;4;4;4;;;;;
1;—мартфон Xiaomi Redmi Note 4 Gray 64GB(QS);4;4;4;4;4;4;4;;;;;
1;—мартфон Xiaomi Redmi Note 4 Silver 64GB;4;4;4;4;4;4;4;;;;;
1;—мартфон Xiaomi Redmi Note 4X Gold 32GB(QS);4;4;4;4;4;4;4;;;;;
1;—мартфон Xiaomi Redmi Note 5 32GB Black;4;4;4;4;4;4;4;;;;;
1;—мартфон Xiaomi Redmi Note 5 32GB Gold;4;4;4;4;4;4;4;;;;;
1;—мартфон Xiaomi Redmi Note 5 64GB Black;4;4;4;4;4;4;4;;;;;
1;—мартфон Xiaomi Redmi Note 5 64GB Blue;4;4;4;4;4;4;4;;;;;
1;—мартфон Xiaomi Redmi Note 5 64GB Gold;4;4;4;4;4;4;4;;;;;
1;—мартфон Xiaomi Redmi Note 5A 16GB Gold;4;4;4;4;4;4;4;;;;;
1;—мартфон Xiaomi Redmi Note 5A 16GB Gray;4;4;4;4;4;4;4;;;;;
1;—мартфон Xiaomi Redmi Note 5A 16GB Rose Gold;4;4;4;4;4;4;4;;;;;
1;—мартфон Xiaomi Redmi Note 5A Prime 32 GB  Rose Gold;4;4;4;4;4;4;4;;;;;
1;—мартфон Xiaomi Redmi Note 5A Prime 32 GB Gold;4;4;4;4;4;4;4;;;;;
1;—мартфон Xiaomi Redmi Note 5A Prime 32 GB Grey;4;4;4;4;4;4;4;;;;;
1;—мартфон Xiaomi Redmi Note 5A Prime 64 GB Grey;4;4;4;4;4;4;4;;;;;
1;—мартфон Xiaomi Redmi S2 32GB Grey;4;4;4;4;4;4;4;;;;;
1;—мартфон Xiaomi Redmi S2 64GB Gold;4;4;4;4;4;4;4;;;;;
1;—мартфон Xiaomi Redmi S2 64GB Grey;4;4;4;4;4;4;4;;;;;
2;—мартфон Xiaomi Mi 6 Blue 128GB;2;2;2;2;2;2;2;;;;;
2;—мартфон Xiaomi Mi 6 Black 64GB;2;2;2;2;2;2;2;;;;;
2;—мартфон Xiaomi Mi A1 Black 32GB;4;4;4;4;4;4;4;;;;;
2;—мартфон Xiaomi Mi A1 Gold 32GB;4;4;4;4;4;4;4;;;;;
2;—мартфон Xiaomi Mi A1 Red 32GB;4;4;4;4;4;4;4;;;;;
2;—мартфон Xiaomi Mi A1 Black 64GB;4;4;4;4;4;4;4;;;;;
2;—мартфон Xiaomi Mi A1 Gold 64GB;4;4;4;4;4;4;4;;;;;
2;—мартфон Xiaomi Mi A1 Red 64GB;4;4;4;4;4;4;4;;;;;
2;—мартфон Xiaomi Mi A1 Rose Gold 64GB;4;4;4;4;4;4;4;;;;;
2;—мартфон Xiaomi Mi MIX 2 Special Edition White 128GB;2;2;2;2;2;2;2;;;;;
2;—мартфон Xiaomi Mi MIX 2 Black 64GB;2;2;2;2;2;2;2;;;;;
2;—мартфон Xiaomi Mi MIX 2s Black 64GB;2;2;2;2;2;2;2;;;;;
2;—мартфон Xiaomi Mi Note 2 Black 64GB;4;4;4;4;4;4;4;;;;;
2;—мартфон Xiaomi Mi Note 2 Silver Black 64GB;4;4;4;4;4;4;4;;;;;
2;—мартфон Xiaomi Redmi 4A Gold 16GB;4;4;4;4;4;4;4;;;;;
2;—мартфон Xiaomi Redmi 4A Gray 16GB;4;4;4;4;4;4;4;;;;;
2;—мартфон Xiaomi Redmi 4A Rose Gold 16GB;4;4;4;4;4;4;4;;;;;
2;—мартфон Xiaomi Redmi 4A Gold 32GB;4;4;4;4;4;4;4;;;;;
2;—мартфон Xiaomi Redmi 4A Gray 32GB;4;4;4;4;4;4;4;;;;;
2;—мартфон Xiaomi Redmi 4X Black 16GB;4;4;4;4;4;4;4;;;;;
2;—мартфон Xiaomi Redmi 4X Gold 16GB;4;4;4;4;4;4;4;;;;;
2;—мартфон Xiaomi Redmi 4X Pink 16GB;4;4;4;4;4;4;4;;;;;
2;—мартфон Xiaomi Redmi 4X Black 32GB;4;4;4;4;4;4;4;;;;;
2;—мартфон Xiaomi Redmi 4X Gold 32GB;4;4;4;4;4;4;4;;;;;
2;—мартфон Xiaomi Redmi 5 16GB Black;4;4;4;4;4;4;4;;;;;
2;—мартфон Xiaomi Redmi 5 16GB Blue;4;4;4;4;4;4;4;;;;;
2;—мартфон Xiaomi Redmi 5 16GB Gold;4;4;4;4;4;4;4;;;;;
2;—мартфон Xiaomi Redmi 5 32GB Black;4;4;4;4;4;4;4;;;;;
2;—мартфон Xiaomi Redmi 5 32GB Blue;4;4;4;4;4;4;4;;;;;
2;—мартфон Xiaomi Redmi 5 32GB Gold;4;4;4;4;4;4;4;;;;;
2;—мартфон Xiaomi Redmi 5 Plus 32GB Black;4;4;4;4;4;4;4;;;;;
2;—мартфон Xiaomi Redmi 5 Plus 32GB Gold;4;4;4;4;4;4;4;;;;;
2;—мартфон Xiaomi Redmi 5 Plus 64GB Black;4;4;4;4;4;4;4;;;;;
2;—мартфон Xiaomi Redmi 5 Plus 64GB Gold;4;4;4;4;4;4;4;;;;;
2;—мартфон Xiaomi Redmi 5A 16GB Gold;4;4;4;4;4;4;4;;;;;
2;—мартфон Xiaomi Redmi 5A 16GB Gray;4;4;4;4;4;4;4;;;;;
2;—мартфон Xiaomi Redmi 5A 16GB Rose Gold;4;4;4;4;4;4;4;;;;;
2;—мартфон Xiaomi Redmi Note 4 Black 32GB;4;4;4;4;4;4;4;;;;;
2;—мартфон Xiaomi Redmi Note 4 Gold 32GB;4;4;4;4;4;4;4;;;;;
2;—мартфон Xiaomi Redmi Note 4 Gray 32GB;4;4;4;4;4;4;4;;;;;
2;—мартфон Xiaomi Redmi Note 4 Black 64GB(QS);4;4;4;4;4;4;4;;;;;
2;—мартфон Xiaomi Redmi Note 4 Gold 64GB(QS);4;4;4;4;4;4;4;;;;;
2;—мартфон Xiaomi Redmi Note 4 Gray 64GB(QS);4;4;4;4;4;4;4;;;;;
2;—мартфон Xiaomi Redmi Note 4 Silver 64GB;4;4;4;4;4;4;4;;;;;
2;—мартфон Xiaomi Redmi Note 4X Gold 32GB(QS);4;4;4;4;4;4;4;;;;;
2;—мартфон Xiaomi Redmi Note 5 32GB Black;4;4;4;4;4;4;4;;;;;
2;—мартфон Xiaomi Redmi Note 5 32GB Gold;4;4;4;4;4;4;4;;;;;
2;—мартфон Xiaomi Redmi Note 5 64GB Black;4;4;4;4;4;4;4;;;;;
2;—мартфон Xiaomi Redmi Note 5 64GB Blue;4;4;4;4;4;4;4;;;;;
2;—мартфон Xiaomi Redmi Note 5 64GB Gold;4;4;4;4;4;4;4;;;;;
2;—мартфон Xiaomi Redmi Note 5A 16GB Gold;4;4;4;4;4;4;4;;;;;
2;—мартфон Xiaomi Redmi Note 5A 16GB Gray;4;4;4;4;4;4;4;;;;;
2;—мартфон Xiaomi Redmi Note 5A 16GB Rose Gold;4;4;4;4;4;4;4;;;;;
2;—мартфон Xiaomi Redmi Note 5A Prime 32 GB  Rose Gold;4;4;4;4;4;4;4;;;;;
2;—мартфон Xiaomi Redmi Note 5A Prime 32 GB Gold;4;4;4;4;4;4;4;;;;;
2;—мартфон Xiaomi Redmi Note 5A Prime 32 GB Grey;4;4;4;4;4;4;4;;;;;
2;—мартфон Xiaomi Redmi Note 5A Prime 64 GB Grey;4;4;4;4;4;4;4;;;;;
2;—мартфон Xiaomi Redmi S2 32GB Grey;4;4;4;4;4;4;4;;;;;
2;—мартфон Xiaomi Redmi S2 64GB Gold;4;4;4;4;4;4;4;;;;;
2;—мартфон Xiaomi Redmi S2 64GB Grey;4;4;4;4;4;4;4;;;;;
3;—мартфон Xiaomi Mi 6 Blue 128GB;2;2;2;2;2;2;2;;;;;
3;—мартфон Xiaomi Mi 6 Black 64GB;2;2;2;2;2;2;2;;;;;
3;—мартфон Xiaomi Mi A1 Black 32GB;4;4;4;4;4;4;4;;;;;
3;—мартфон Xiaomi Mi A1 Gold 32GB;4;4;4;4;4;4;4;;;;;
3;—мартфон Xiaomi Mi A1 Red 32GB;4;4;4;4;4;4;4;;;;;
3;—мартфон Xiaomi Mi A1 Black 64GB;4;4;4;4;4;4;4;;;;;
3;—мартфон Xiaomi Mi A1 Gold 64GB;4;4;4;4;4;4;4;;;;;
3;—мартфон Xiaomi Mi A1 Red 64GB;4;4;4;4;4;4;4;;;;;
3;—мартфон Xiaomi Mi A1 Rose Gold 64GB;4;4;4;4;4;4;4;;;;;
3;—мартфон Xiaomi Mi MIX 2 Special Edition White 128GB;2;2;2;2;2;2;2;;;;;
3;—мартфон Xiaomi Mi MIX 2 Black 64GB;2;2;2;2;2;2;2;;;;;
3;—мартфон Xiaomi Mi MIX 2s Black 64GB;2;2;2;2;2;2;2;;;;;
3;—мартфон Xiaomi Mi Note 2 Black 64GB;4;4;4;4;4;4;4;;;;;
3;—мартфон Xiaomi Mi Note 2 Silver Black 64GB;4;4;4;4;4;4;4;;;;;
3;—мартфон Xiaomi Redmi 4A Gold 16GB;4;4;4;4;4;4;4;;;;;
3;—мартфон Xiaomi Redmi 4A Gray 16GB;4;4;4;4;4;4;4;;;;;
3;—мартфон Xiaomi Redmi 4A Rose Gold 16GB;4;4;4;4;4;4;4;;;;;
3;—мартфон Xiaomi Redmi 4A Gold 32GB;4;4;4;4;4;4;4;;;;;
3;—мартфон Xiaomi Redmi 4A Gray 32GB;4;4;4;4;4;4;4;;;;;
3;—мартфон Xiaomi Redmi 4X Black 16GB;4;4;4;4;4;4;4;;;;;
3;—мартфон Xiaomi Redmi 4X Gold 16GB;4;4;4;4;4;4;4;;;;;
3;—мартфон Xiaomi Redmi 4X Pink 16GB;4;4;4;4;4;4;4;;;;;
3;—мартфон Xiaomi Redmi 4X Black 32GB;4;4;4;4;4;4;4;;;;;
3;—мартфон Xiaomi Redmi 4X Gold 32GB;4;4;4;4;4;4;4;;;;;
3;—мартфон Xiaomi Redmi 5 16GB Black;4;4;4;4;4;4;4;;;;;
3;—мартфон Xiaomi Redmi 5 16GB Blue;4;4;4;4;4;4;4;;;;;
3;—мартфон Xiaomi Redmi 5 16GB Gold;4;4;4;4;4;4;4;;;;;
3;—мартфон Xiaomi Redmi 5 32GB Black;4;4;4;4;4;4;4;;;;;
3;—мартфон Xiaomi Redmi 5 32GB Blue;4;4;4;4;4;4;4;;;;;
3;—мартфон Xiaomi Redmi 5 32GB Gold;4;4;4;4;4;4;4;;;;;
3;—мартфон Xiaomi Redmi 5 Plus 32GB Black;4;4;4;4;4;4;4;;;;;
3;—мартфон Xiaomi Redmi 5 Plus 32GB Gold;4;4;4;4;4;4;4;;;;;
3;—мартфон Xiaomi Redmi 5 Plus 64GB Black;4;4;4;4;4;4;4;;;;;
3;—мартфон Xiaomi Redmi 5 Plus 64GB Gold;4;4;4;4;4;4;4;;;;;
3;—мартфон Xiaomi Redmi 5A 16GB Gold;4;4;4;4;4;4;4;;;;;
3;—мартфон Xiaomi Redmi 5A 16GB Gray;4;4;4;4;4;4;4;;;;;
3;—мартфон Xiaomi Redmi 5A 16GB Rose Gold;4;4;4;4;4;4;4;;;;;
3;—мартфон Xiaomi Redmi Note 4 Black 32GB;4;4;4;4;4;4;4;;;;;
3;—мартфон Xiaomi Redmi Note 4 Gold 32GB;4;4;4;4;4;4;4;;;;;
3;—мартфон Xiaomi Redmi Note 4 Gray 32GB;4;4;4;4;4;4;4;;;;;
3;—мартфон Xiaomi Redmi Note 4 Black 64GB(QS);4;4;4;4;4;4;4;;;;;
3;—мартфон Xiaomi Redmi Note 4 Gold 64GB(QS);4;4;4;4;4;4;4;;;;;
3;—мартфон Xiaomi Redmi Note 4 Gray 64GB(QS);4;4;4;4;4;4;4;;;;;
3;—мартфон Xiaomi Redmi Note 4 Silver 64GB;4;4;4;4;4;4;4;;;;;
3;—мартфон Xiaomi Redmi Note 4X Gold 32GB(QS);4;4;4;4;4;4;4;;;;;
3;—мартфон Xiaomi Redmi Note 5 32GB Black;4;4;4;4;4;4;4;;;;;
3;—мартфон Xiaomi Redmi Note 5 32GB Gold;4;4;4;4;4;4;4;;;;;
3;—мартфон Xiaomi Redmi Note 5 64GB Black;4;4;4;4;4;4;4;;;;;
3;—мартфон Xiaomi Redmi Note 5 64GB Blue;4;4;4;4;4;4;4;;;;;
3;—мартфон Xiaomi Redmi Note 5 64GB Gold;4;4;4;4;4;4;4;;;;;
3;—мартфон Xiaomi Redmi Note 5A 16GB Gold;4;4;4;4;4;4;4;;;;;
3;—мартфон Xiaomi Redmi Note 5A 16GB Gray;4;4;4;4;4;4;4;;;;;
3;—мартфон Xiaomi Redmi Note 5A 16GB Rose Gold;4;4;4;4;4;4;4;;;;;
3;—мартфон Xiaomi Redmi Note 5A Prime 32 GB  Rose Gold;4;4;4;4;4;4;4;;;;;
3;—мартфон Xiaomi Redmi Note 5A Prime 32 GB Gold;4;4;4;4;4;4;4;;;;;
3;—мартфон Xiaomi Redmi Note 5A Prime 32 GB Grey;4;4;4;4;4;4;4;;;;;
3;—мартфон Xiaomi Redmi Note 5A Prime 64 GB Grey;4;4;4;4;4;4;4;;;;;
3;—мартфон Xiaomi Redmi S2 32GB Grey;4;4;4;4;4;4;4;;;;;
3;—мартфон Xiaomi Redmi S2 64GB Gold;4;4;4;4;4;4;4;;;;;
3;—мартфон Xiaomi Redmi S2 64GB Grey;4;4;4;4;4;4;4;;;;;
4;—мартфон Xiaomi Mi 6 Blue 128GB;2;2;2;2;2;2;2;;;;;
4;—мартфон Xiaomi Mi 6 Black 64GB;2;2;2;2;2;2;2;;;;;
4;—мартфон Xiaomi Mi A1 Black 32GB;3;3;3;3;3;3;3;;;;;
4;—мартфон Xiaomi Mi A1 Gold 32GB;3;3;3;3;3;3;3;;;;;
4;—мартфон Xiaomi Mi A1 Red 32GB;3;3;3;3;3;3;3;;;;;
4;—мартфон Xiaomi Mi A1 Black 64GB;3;3;3;3;3;3;3;;;;;
4;—мартфон Xiaomi Mi A1 Gold 64GB;3;3;3;3;3;3;3;;;;;
4;—мартфон Xiaomi Mi A1 Red 64GB;3;3;3;3;3;3;3;;;;;
4;—мартфон Xiaomi Mi A1 Rose Gold 64GB;3;3;3;3;3;3;3;;;;;
4;—мартфон Xiaomi Mi MIX 2 Special Edition White 128GB;2;2;2;2;2;2;2;;;;;
4;—мартфон Xiaomi Mi MIX 2 Black 64GB;2;2;2;2;2;2;2;;;;;
4;—мартфон Xiaomi Mi MIX 2s Black 64GB;2;2;2;2;2;2;2;;;;;
4;—мартфон Xiaomi Mi Note 2 Black 64GB;3;3;3;3;3;3;3;;;;;
4;—мартфон Xiaomi Mi Note 2 Silver Black 64GB;3;3;3;3;3;3;3;;;;;
4;—мартфон Xiaomi Redmi 4A Gold 16GB;3;3;3;3;3;3;3;;;;;
4;—мартфон Xiaomi Redmi 4A Gray 16GB;3;3;3;3;3;3;3;;;;;
4;—мартфон Xiaomi Redmi 4A Rose Gold 16GB;3;3;3;3;3;3;3;;;;;
4;—мартфон Xiaomi Redmi 4A Gold 32GB;3;3;3;3;3;3;3;;;;;
4;—мартфон Xiaomi Redmi 4A Gray 32GB;3;3;3;3;3;3;3;;;;;
4;—мартфон Xiaomi Redmi 4X Black 16GB;3;3;3;3;3;3;3;;;;;
4;—мартфон Xiaomi Redmi 4X Gold 16GB;3;3;3;3;3;3;3;;;;;
4;—мартфон Xiaomi Redmi 4X Pink 16GB;3;3;3;3;3;3;3;;;;;
4;—мартфон Xiaomi Redmi 4X Black 32GB;3;3;3;3;3;3;3;;;;;
4;—мартфон Xiaomi Redmi 4X Gold 32GB;3;3;3;3;3;3;3;;;;;
4;—мартфон Xiaomi Redmi 5 16GB Black;3;3;3;3;3;3;3;;;;;
4;—мартфон Xiaomi Redmi 5 16GB Blue;3;3;3;3;3;3;3;;;;;
4;—мартфон Xiaomi Redmi 5 16GB Gold;3;3;3;3;3;3;3;;;;;
4;—мартфон Xiaomi Redmi 5 32GB Black;3;3;3;3;3;3;3;;;;;
4;—мартфон Xiaomi Redmi 5 32GB Blue;3;3;3;3;3;3;3;;;;;
4;—мартфон Xiaomi Redmi 5 32GB Gold;3;3;3;3;3;3;3;;;;;
4;—мартфон Xiaomi Redmi 5 Plus 32GB Black;3;3;3;3;3;3;3;;;;;
4;—мартфон Xiaomi Redmi 5 Plus 32GB Gold;3;3;3;3;3;3;3;;;;;
4;—мартфон Xiaomi Redmi 5 Plus 64GB Black;3;3;3;3;3;3;3;;;;;
4;—мартфон Xiaomi Redmi 5 Plus 64GB Gold;3;3;3;3;3;3;3;;;;;
4;—мартфон Xiaomi Redmi 5A 16GB Gold;3;3;3;3;3;3;3;;;;;
4;—мартфон Xiaomi Redmi 5A 16GB Gray;3;3;3;3;3;3;3;;;;;
4;—мартфон Xiaomi Redmi 5A 16GB Rose Gold;3;3;3;3;3;3;3;;;;;
4;—мартфон Xiaomi Redmi Note 4 Black 32GB;3;3;3;3;3;3;3;;;;;
4;—мартфон Xiaomi Redmi Note 4 Gold 32GB;3;3;3;3;3;3;3;;;;;
4;—мартфон Xiaomi Redmi Note 4 Gray 32GB;3;3;3;3;3;3;3;;;;;
4;—мартфон Xiaomi Redmi Note 4 Black 64GB(QS);3;3;3;3;3;3;3;;;;;
4;—мартфон Xiaomi Redmi Note 4 Gold 64GB(QS);3;3;3;3;3;3;3;;;;;
4;—мартфон Xiaomi Redmi Note 4 Gray 64GB(QS);3;3;3;3;3;3;3;;;;;
4;—мартфон Xiaomi Redmi Note 4 Silver 64GB;3;3;3;3;3;3;3;;;;;
4;—мартфон Xiaomi Redmi Note 4X Gold 32GB(QS);3;3;3;3;3;3;3;;;;;
4;—мартфон Xiaomi Redmi Note 5 32GB Black;3;3;3;3;3;3;3;;;;;
4;—мартфон Xiaomi Redmi Note 5 32GB Gold;3;3;3;3;3;3;3;;;;;
4;—мартфон Xiaomi Redmi Note 5 64GB Black;3;3;3;3;3;3;3;;;;;
4;—мартфон Xiaomi Redmi Note 5 64GB Blue;3;3;3;3;3;3;3;;;;;
4;—мартфон Xiaomi Redmi Note 5 64GB Gold;3;3;3;3;3;3;3;;;;;
4;—мартфон Xiaomi Redmi Note 5A 16GB Gold;3;3;3;3;3;3;3;;;;;
4;—мартфон Xiaomi Redmi Note 5A 16GB Gray;3;3;3;3;3;3;3;;;;;
4;—мартфон Xiaomi Redmi Note 5A 16GB Rose Gold;3;3;3;3;3;3;3;;;;;
4;—мартфон Xiaomi Redmi Note 5A Prime 32 GB  Rose Gold;3;3;3;3;3;3;3;;;;;
4;—мартфон Xiaomi Redmi Note 5A Prime 32 GB Gold;3;3;3;3;3;3;3;;;;;
4;—мартфон Xiaomi Redmi Note 5A Prime 32 GB Grey;3;3;3;3;3;3;3;;;;;
4;—мартфон Xiaomi Redmi Note 5A Prime 64 GB Grey;3;3;3;3;3;3;3;;;;;
4;—мартфон Xiaomi Redmi S2 32GB Grey;3;3;3;3;3;3;3;;;;;
4;—мартфон Xiaomi Redmi S2 64GB Gold;3;3;3;3;3;3;3;;;;;
4;—мартфон Xiaomi Redmi S2 64GB Grey;3;3;3;3;3;3;3;;;;;
5;—мартфон Xiaomi Mi 6 Blue 128GB;2;2;2;2;2;2;2;;;;;
5;—мартфон Xiaomi Mi 6 Black 64GB;2;2;2;2;2;2;2;;;;;
5;—мартфон Xiaomi Mi A1 Black 32GB;3;3;3;3;3;3;3;;;;;
5;—мартфон Xiaomi Mi A1 Gold 32GB;3;3;3;3;3;3;3;;;;;
5;—мартфон Xiaomi Mi A1 Red 32GB;3;3;3;3;3;3;3;;;;;
5;—мартфон Xiaomi Mi A1 Black 64GB;3;3;3;3;3;3;3;;;;;
5;—мартфон Xiaomi Mi A1 Gold 64GB;3;3;3;3;3;3;3;;;;;
5;—мартфон Xiaomi Mi A1 Red 64GB;3;3;3;3;3;3;3;;;;;
5;—мартфон Xiaomi Mi A1 Rose Gold 64GB;3;3;3;3;3;3;3;;;;;
5;—мартфон Xiaomi Mi MIX 2 Special Edition White 128GB;2;2;2;2;2;2;2;;;;;
5;—мартфон Xiaomi Mi MIX 2 Black 64GB;2;2;2;2;2;2;2;;;;;
5;—мартфон Xiaomi Mi MIX 2s Black 64GB;2;2;2;2;2;2;2;;;;;
5;—мартфон Xiaomi Mi Note 2 Black 64GB;3;3;3;3;3;3;3;;;;;
5;—мартфон Xiaomi Mi Note 2 Silver Black 64GB;3;3;3;3;3;3;3;;;;;
5;—мартфон Xiaomi Redmi 4A Gold 16GB;3;3;3;3;3;3;3;;;;;
5;—мартфон Xiaomi Redmi 4A Gray 16GB;3;3;3;3;3;3;3;;;;;
5;—мартфон Xiaomi Redmi 4A Rose Gold 16GB;3;3;3;3;3;3;3;;;;;
5;—мартфон Xiaomi Redmi 4A Gold 32GB;3;3;3;3;3;3;3;;;;;
5;—мартфон Xiaomi Redmi 4A Gray 32GB;3;3;3;3;3;3;3;;;;;
5;—мартфон Xiaomi Redmi 4X Black 16GB;3;3;3;3;3;3;3;;;;;
5;—мартфон Xiaomi Redmi 4X Gold 16GB;3;3;3;3;3;3;3;;;;;
5;—мартфон Xiaomi Redmi 4X Pink 16GB;3;3;3;3;3;3;3;;;;;
5;—мартфон Xiaomi Redmi 4X Black 32GB;3;3;3;3;3;3;3;;;;;
5;—мартфон Xiaomi Redmi 4X Gold 32GB;3;3;3;3;3;3;3;;;;;
5;—мартфон Xiaomi Redmi 5 16GB Black;3;3;3;3;3;3;3;;;;;
5;—мартфон Xiaomi Redmi 5 16GB Blue;3;3;3;3;3;3;3;;;;;
5;—мартфон Xiaomi Redmi 5 16GB Gold;3;3;3;3;3;3;3;;;;;
5;—мартфон Xiaomi Redmi 5 32GB Black;3;3;3;3;3;3;3;;;;;
5;—мартфон Xiaomi Redmi 5 32GB Blue;3;3;3;3;3;3;3;;;;;
5;—мартфон Xiaomi Redmi 5 32GB Gold;3;3;3;3;3;3;3;;;;;
5;—мартфон Xiaomi Redmi 5 Plus 32GB Black;3;3;3;3;3;3;3;;;;;
5;—мартфон Xiaomi Redmi 5 Plus 32GB Gold;3;3;3;3;3;3;3;;;;;
5;—мартфон Xiaomi Redmi 5 Plus 64GB Black;3;3;3;3;3;3;3;;;;;
5;—мартфон Xiaomi Redmi 5 Plus 64GB Gold;3;3;3;3;3;3;3;;;;;
5;—мартфон Xiaomi Redmi 5A 16GB Gold;3;3;3;3;3;3;3;;;;;
5;—мартфон Xiaomi Redmi 5A 16GB Gray;3;3;3;3;3;3;3;;;;;
5;—мартфон Xiaomi Redmi 5A 16GB Rose Gold;3;3;3;3;3;3;3;;;;;
5;—мартфон Xiaomi Redmi Note 4 Black 32GB;3;3;3;3;3;3;3;;;;;
5;—мартфон Xiaomi Redmi Note 4 Gold 32GB;3;3;3;3;3;3;3;;;;;
5;—мартфон Xiaomi Redmi Note 4 Gray 32GB;3;3;3;3;3;3;3;;;;;
5;—мартфон Xiaomi Redmi Note 4 Black 64GB(QS);3;3;3;3;3;3;3;;;;;
5;—мартфон Xiaomi Redmi Note 4 Gold 64GB(QS);3;3;3;3;3;3;3;;;;;
5;—мартфон Xiaomi Redmi Note 4 Gray 64GB(QS);3;3;3;3;3;3;3;;;;;
5;—мартфон Xiaomi Redmi Note 4 Silver 64GB;3;3;3;3;3;3;3;;;;;
5;—мартфон Xiaomi Redmi Note 4X Gold 32GB(QS);3;3;3;3;3;3;3;;;;;
5;—мартфон Xiaomi Redmi Note 5 32GB Black;3;3;3;3;3;3;3;;;;;
5;—мартфон Xiaomi Redmi Note 5 32GB Gold;3;3;3;3;3;3;3;;;;;
5;—мартфон Xiaomi Redmi Note 5 64GB Black;3;3;3;3;3;3;3;;;;;
5;—мартфон Xiaomi Redmi Note 5 64GB Blue;3;3;3;3;3;3;3;;;;;
5;—мартфон Xiaomi Redmi Note 5 64GB Gold;3;3;3;3;3;3;3;;;;;
5;—мартфон Xiaomi Redmi Note 5A 16GB Gold;3;3;3;3;3;3;3;;;;;
5;—мартфон Xiaomi Redmi Note 5A 16GB Gray;3;3;3;3;3;3;3;;;;;
5;—мартфон Xiaomi Redmi Note 5A 16GB Rose Gold;3;3;3;3;3;3;3;;;;;
5;—мартфон Xiaomi Redmi Note 5A Prime 32 GB  Rose Gold;3;3;3;3;3;3;3;;;;;
5;—мартфон Xiaomi Redmi Note 5A Prime 32 GB Gold;3;3;3;3;3;3;3;;;;;
5;—мартфон Xiaomi Redmi Note 5A Prime 32 GB Grey;3;3;3;3;3;3;3;;;;;
5;—мартфон Xiaomi Redmi Note 5A Prime 64 GB Grey;3;3;3;3;3;3;3;;;;;
5;—мартфон Xiaomi Redmi S2 32GB Grey;3;3;3;3;3;3;3;;;;;
5;—мартфон Xiaomi Redmi S2 64GB Gold;3;3;3;3;3;3;3;;;;;
5;—мартфон Xiaomi Redmi S2 64GB Grey;3;3;3;3;3;3;3;;;;;
6;—мартфон Xiaomi Mi 6 Blue 128GB;1;1;1;1;1;1;1;;;;;
6;—мартфон Xiaomi Mi 6 Black 64GB;1;1;1;1;1;1;1;;;;;
6;—мартфон Xiaomi Mi A1 Black 32GB;2;2;2;2;2;2;2;;;;;
6;—мартфон Xiaomi Mi A1 Gold 32GB;2;2;2;2;2;2;2;;;;;
6;—мартфон Xiaomi Mi A1 Red 32GB;2;2;2;2;2;2;2;;;;;
6;—мартфон Xiaomi Mi A1 Black 64GB;2;2;2;2;2;2;2;;;;;
6;—мартфон Xiaomi Mi A1 Gold 64GB;2;2;2;2;2;2;2;;;;;
6;—мартфон Xiaomi Mi A1 Red 64GB;2;2;2;2;2;2;2;;;;;
6;—мартфон Xiaomi Mi A1 Rose Gold 64GB;2;2;2;2;2;2;2;;;;;
6;—мартфон Xiaomi Mi MIX 2 Special Edition White 128GB;1;1;1;1;1;1;1;;;;;
6;—мартфон Xiaomi Mi MIX 2 Black 64GB;1;1;1;1;1;1;1;;;;;
6;—мартфон Xiaomi Mi MIX 2s Black 64GB;1;1;1;1;1;1;1;;;;;
6;—мартфон Xiaomi Mi Note 2 Black 64GB;1;1;1;1;1;1;1;;;;;
6;—мартфон Xiaomi Mi Note 2 Silver Black 64GB;1;1;1;1;1;1;1;;;;;
6;—мартфон Xiaomi Redmi 4A Gold 16GB;2;2;2;2;2;2;2;;;;;
6;—мартфон Xiaomi Redmi 4A Gray 16GB;2;2;2;2;2;2;2;;;;;
6;—мартфон Xiaomi Redmi 4A Rose Gold 16GB;2;2;2;2;2;2;2;;;;;
6;—мартфон Xiaomi Redmi 4A Gold 32GB;2;2;2;2;2;2;2;;;;;
6;—мартфон Xiaomi Redmi 4A Gray 32GB;2;2;2;2;2;2;2;;;;;
6;—мартфон Xiaomi Redmi 4X Black 16GB;2;2;2;2;2;2;2;;;;;
6;—мартфон Xiaomi Redmi 4X Gold 16GB;2;2;2;2;2;2;2;;;;;
6;—мартфон Xiaomi Redmi 4X Pink 16GB;2;2;2;2;2;2;2;;;;;
6;—мартфон Xiaomi Redmi 4X Black 32GB;2;2;2;2;2;2;2;;;;;
6;—мартфон Xiaomi Redmi 4X Gold 32GB;2;2;2;2;2;2;2;;;;;
6;—мартфон Xiaomi Redmi 5 16GB Black;2;2;2;2;2;2;2;;;;;
6;—мартфон Xiaomi Redmi 5 16GB Blue;2;2;2;2;2;2;2;;;;;
6;—мартфон Xiaomi Redmi 5 16GB Gold;2;2;2;2;2;2;2;;;;;
6;—мартфон Xiaomi Redmi 5 32GB Black;2;2;2;2;2;2;2;;;;;
6;—мартфон Xiaomi Redmi 5 32GB Blue;2;2;2;2;2;2;2;;;;;
6;—мартфон Xiaomi Redmi 5 32GB Gold;2;2;2;2;2;2;2;;;;;
6;—мартфон Xiaomi Redmi 5 Plus 32GB Black;2;2;2;2;2;2;2;;;;;
6;—мартфон Xiaomi Redmi 5 Plus 32GB Gold;2;2;2;2;2;2;2;;;;;
6;—мартфон Xiaomi Redmi 5 Plus 64GB Black;2;2;2;2;2;2;2;;;;;
6;—мартфон Xiaomi Redmi 5 Plus 64GB Gold;2;2;2;2;2;2;2;;;;;
6;—мартфон Xiaomi Redmi 5A 16GB Gold;2;2;2;2;2;2;2;;;;;
6;—мартфон Xiaomi Redmi 5A 16GB Gray;2;2;2;2;2;2;2;;;;;
6;—мартфон Xiaomi Redmi 5A 16GB Rose Gold;2;2;2;2;2;2;2;;;;;
6;—мартфон Xiaomi Redmi Note 4 Black 32GB;2;2;2;2;2;2;2;;;;;
6;—мартфон Xiaomi Redmi Note 4 Gold 32GB;2;2;2;2;2;2;2;;;;;
6;—мартфон Xiaomi Redmi Note 4 Gray 32GB;2;2;2;2;2;2;2;;;;;
6;—мартфон Xiaomi Redmi Note 4 Black 64GB(QS);2;2;2;2;2;2;2;;;;;
6;—мартфон Xiaomi Redmi Note 4 Gold 64GB(QS);2;2;2;2;2;2;2;;;;;
6;—мартфон Xiaomi Redmi Note 4 Gray 64GB(QS);2;2;2;2;2;2;2;;;;;
6;—мартфон Xiaomi Redmi Note 4 Silver 64GB;2;2;2;2;2;2;2;;;;;
6;—мартфон Xiaomi Redmi Note 4X Gold 32GB(QS);2;2;2;2;2;2;2;;;;;
6;—мартфон Xiaomi Redmi Note 5 32GB Black;2;2;2;2;2;2;2;;;;;
6;—мартфон Xiaomi Redmi Note 5 32GB Gold;2;2;2;2;2;2;2;;;;;
6;—мартфон Xiaomi Redmi Note 5 64GB Black;2;2;2;2;2;2;2;;;;;
6;—мартфон Xiaomi Redmi Note 5 64GB Blue;2;2;2;2;2;2;2;;;;;
6;—мартфон Xiaomi Redmi Note 5 64GB Gold;2;2;2;2;2;2;2;;;;;
6;—мартфон Xiaomi Redmi Note 5A 16GB Gold;2;2;2;2;2;2;2;;;;;
6;—мартфон Xiaomi Redmi Note 5A 16GB Gray;2;2;2;2;2;2;2;;;;;
6;—мартфон Xiaomi Redmi Note 5A 16GB Rose Gold;2;2;2;2;2;2;2;;;;;
6;—мартфон Xiaomi Redmi Note 5A Prime 32 GB  Rose Gold;2;2;2;2;2;2;2;;;;;
6;—мартфон Xiaomi Redmi Note 5A Prime 32 GB Gold;2;2;2;2;2;2;2;;;;;
6;—мартфон Xiaomi Redmi Note 5A Prime 32 GB Grey;2;2;2;2;2;2;2;;;;;
6;—мартфон Xiaomi Redmi Note 5A Prime 64 GB Grey;2;2;2;2;2;2;2;;;;;
6;—мартфон Xiaomi Redmi S2 32GB Grey;2;2;2;2;2;2;2;;;;;
6;—мартфон Xiaomi Redmi S2 64GB Gold;2;2;2;2;2;2;2;;;;;
6;—мартфон Xiaomi Redmi S2 64GB Grey;2;2;2;2;2;2;2;;;;;
7;—мартфон Xiaomi Mi 6 Blue 128GB;1;1;1;1;1;1;1;;;;;
7;—мартфон Xiaomi Mi 6 Black 64GB;1;1;1;1;1;1;1;;;;;
7;—мартфон Xiaomi Mi A1 Black 32GB;2;2;2;2;2;2;2;;;;;
7;—мартфон Xiaomi Mi A1 Gold 32GB;2;2;2;2;2;2;2;;;;;
7;—мартфон Xiaomi Mi A1 Red 32GB;2;2;2;2;2;2;2;;;;;
7;—мартфон Xiaomi Mi A1 Black 64GB;2;2;2;2;2;2;2;;;;;
7;—мартфон Xiaomi Mi A1 Gold 64GB;2;2;2;2;2;2;2;;;;;
7;—мартфон Xiaomi Mi A1 Red 64GB;2;2;2;2;2;2;2;;;;;
7;—мартфон Xiaomi Mi A1 Rose Gold 64GB;2;2;2;2;2;2;2;;;;;
7;—мартфон Xiaomi Mi MIX 2 Special Edition White 128GB;1;1;1;1;1;1;1;;;;;
7;—мартфон Xiaomi Mi MIX 2 Black 64GB;1;1;1;1;1;1;1;;;;;
7;—мартфон Xiaomi Mi MIX 2s Black 64GB;1;1;1;1;1;1;1;;;;;
7;—мартфон Xiaomi Mi Note 2 Black 64GB;1;1;1;1;1;1;1;;;;;
7;—мартфон Xiaomi Mi Note 2 Silver Black 64GB;1;1;1;1;1;1;1;;;;;
7;—мартфон Xiaomi Redmi 4A Gold 16GB;2;2;2;2;2;2;2;;;;;
7;—мартфон Xiaomi Redmi 4A Gray 16GB;2;2;2;2;2;2;2;;;;;
7;—мартфон Xiaomi Redmi 4A Rose Gold 16GB;2;2;2;2;2;2;2;;;;;
7;—мартфон Xiaomi Redmi 4A Gold 32GB;2;2;2;2;2;2;2;;;;;
7;—мартфон Xiaomi Redmi 4A Gray 32GB;2;2;2;2;2;2;2;;;;;
7;—мартфон Xiaomi Redmi 4X Black 16GB;2;2;2;2;2;2;2;;;;;
7;—мартфон Xiaomi Redmi 4X Gold 16GB;2;2;2;2;2;2;2;;;;;
7;—мартфон Xiaomi Redmi 4X Pink 16GB;2;2;2;2;2;2;2;;;;;
7;—мартфон Xiaomi Redmi 4X Black 32GB;2;2;2;2;2;2;2;;;;;
7;—мартфон Xiaomi Redmi 4X Gold 32GB;2;2;2;2;2;2;2;;;;;
7;—мартфон Xiaomi Redmi 5 16GB Black;2;2;2;2;2;2;2;;;;;
7;—мартфон Xiaomi Redmi 5 16GB Blue;2;2;2;2;2;2;2;;;;;
7;—мартфон Xiaomi Redmi 5 16GB Gold;2;2;2;2;2;2;2;;;;;
7;—мартфон Xiaomi Redmi 5 32GB Black;2;2;2;2;2;2;2;;;;;
7;—мартфон Xiaomi Redmi 5 32GB Blue;2;2;2;2;2;2;2;;;;;
7;—мартфон Xiaomi Redmi 5 32GB Gold;2;2;2;2;2;2;2;;;;;
7;—мартфон Xiaomi Redmi 5 Plus 32GB Black;2;2;2;2;2;2;2;;;;;
7;—мартфон Xiaomi Redmi 5 Plus 32GB Gold;2;2;2;2;2;2;2;;;;;
7;—мартфон Xiaomi Redmi 5 Plus 64GB Black;2;2;2;2;2;2;2;;;;;
7;—мартфон Xiaomi Redmi 5 Plus 64GB Gold;2;2;2;2;2;2;2;;;;;
7;—мартфон Xiaomi Redmi 5A 16GB Gold;2;2;2;2;2;2;2;;;;;
7;—мартфон Xiaomi Redmi 5A 16GB Gray;2;2;2;2;2;2;2;;;;;
7;—мартфон Xiaomi Redmi 5A 16GB Rose Gold;2;2;2;2;2;2;2;;;;;
7;—мартфон Xiaomi Redmi Note 4 Black 32GB;2;2;2;2;2;2;2;;;;;
7;—мартфон Xiaomi Redmi Note 4 Gold 32GB;2;2;2;2;2;2;2;;;;;
7;—мартфон Xiaomi Redmi Note 4 Gray 32GB;2;2;2;2;2;2;2;;;;;
7;—мартфон Xiaomi Redmi Note 4 Black 64GB(QS);2;2;2;2;2;2;2;;;;;
7;—мартфон Xiaomi Redmi Note 4 Gold 64GB(QS);2;2;2;2;2;2;2;;;;;
7;—мартфон Xiaomi Redmi Note 4 Gray 64GB(QS);2;2;2;2;2;2;2;;;;;
7;—мартфон Xiaomi Redmi Note 4 Silver 64GB;2;2;2;2;2;2;2;;;;;
7;—мартфон Xiaomi Redmi Note 4X Gold 32GB(QS);2;2;2;2;2;2;2;;;;;
7;—мартфон Xiaomi Redmi Note 5 32GB Black;2;2;2;2;2;2;2;;;;;
7;—мартфон Xiaomi Redmi Note 5 32GB Gold;2;2;2;2;2;2;2;;;;;
7;—мартфон Xiaomi Redmi Note 5 64GB Black;2;2;2;2;2;2;2;;;;;
7;—мартфон Xiaomi Redmi Note 5 64GB Blue;2;2;2;2;2;2;2;;;;;
7;—мартфон Xiaomi Redmi Note 5 64GB Gold;2;2;2;2;2;2;2;;;;;
7;—мартфон Xiaomi Redmi Note 5A 16GB Gold;2;2;2;2;2;2;2;;;;;
7;—мартфон Xiaomi Redmi Note 5A 16GB Gray;2;2;2;2;2;2;2;;;;;
7;—мартфон Xiaomi Redmi Note 5A 16GB Rose Gold;2;2;2;2;2;2;2;;;;;
7;—мартфон Xiaomi Redmi Note 5A Prime 32 GB  Rose Gold;2;2;2;2;2;2;2;;;;;
7;—мартфон Xiaomi Redmi Note 5A Prime 32 GB Gold;2;2;2;2;2;2;2;;;;;
7;—мартфон Xiaomi Redmi Note 5A Prime 32 GB Grey;2;2;2;2;2;2;2;;;;;
7;—мартфон Xiaomi Redmi Note 5A Prime 64 GB Grey;2;2;2;2;2;2;2;;;;;
7;—мартфон Xiaomi Redmi S2 32GB Grey;2;2;2;2;2;2;2;;;;;
7;—мартфон Xiaomi Redmi S2 64GB Gold;2;2;2;2;2;2;2;;;;;
7;—мартфон Xiaomi Redmi S2 64GB Grey;2;2;2;2;2;2;2;;;;;
0;—мартфон Xiaomi Mi 6 Blue 128GB;0;0;0;0;0;0;0;;;;;
0;—мартфон Xiaomi Mi 6 Black 64GB;0;0;0;0;0;0;0;;;;;
0;—мартфон Xiaomi Mi A1 Black 32GB;0;0;0;0;0;0;0;;;;;
0;—мартфон Xiaomi Mi A1 Gold 32GB;0;0;0;0;0;0;0;;;;;
0;—мартфон Xiaomi Mi A1 Red 32GB;0;0;0;0;0;0;0;;;;;
0;—мартфон Xiaomi Mi A1 Black 64GB;0;0;0;0;0;0;0;;;;;
0;—мартфон Xiaomi Mi A1 Gold 64GB;0;0;0;0;0;0;0;;;;;
0;—мартфон Xiaomi Mi A1 Red 64GB;0;0;0;0;0;0;0;;;;;
0;—мартфон Xiaomi Mi A1 Rose Gold 64GB;0;0;0;0;0;0;0;;;;;
0;—мартфон Xiaomi Mi MIX 2 Special Edition White 128GB;0;0;0;0;0;0;0;;;;;
0;—мартфон Xiaomi Mi MIX 2 Black 64GB;0;0;0;0;0;0;0;;;;;
0;—мартфон Xiaomi Mi MIX 2s Black 64GB;0;0;0;0;0;0;0;;;;;
0;—мартфон Xiaomi Mi Note 2 Black 64GB;0;0;0;0;0;0;0;;;;;
0;—мартфон Xiaomi Mi Note 2 Silver Black 64GB;0;0;0;0;0;0;0;;;;;
0;—мартфон Xiaomi Redmi 4A Gold 16GB;0;0;0;0;0;0;0;;;;;
0;—мартфон Xiaomi Redmi 4A Gray 16GB;0;0;0;0;0;0;0;;;;;
0;—мартфон Xiaomi Redmi 4A Rose Gold 16GB;0;0;0;0;0;0;0;;;;;
0;—мартфон Xiaomi Redmi 4A Gold 32GB;0;0;0;0;0;0;0;;;;;
0;—мартфон Xiaomi Redmi 4A Gray 32GB;0;0;0;0;0;0;0;;;;;
0;—мартфон Xiaomi Redmi 4X Black 16GB;0;0;0;0;0;0;0;;;;;
0;—мартфон Xiaomi Redmi 4X Gold 16GB;0;0;0;0;0;0;0;;;;;
0;—мартфон Xiaomi Redmi 4X Pink 16GB;0;0;0;0;0;0;0;;;;;
0;—мартфон Xiaomi Redmi 4X Black 32GB;0;0;0;0;0;0;0;;;;;
0;—мартфон Xiaomi Redmi 4X Gold 32GB;0;0;0;0;0;0;0;;;;;
0;—мартфон Xiaomi Redmi 5 16GB Black;0;0;0;0;0;0;0;;;;;
0;—мартфон Xiaomi Redmi 5 16GB Blue;0;0;0;0;0;0;0;;;;;
0;—мартфон Xiaomi Redmi 5 16GB Gold;0;0;0;0;0;0;0;;;;;
0;—мартфон Xiaomi Redmi 5 32GB Black;0;0;0;0;0;0;0;;;;;
0;—мартфон Xiaomi Redmi 5 32GB Blue;0;0;0;0;0;0;0;;;;;
0;—мартфон Xiaomi Redmi 5 32GB Gold;0;0;0;0;0;0;0;;;;;
0;—мартфон Xiaomi Redmi 5 Plus 32GB Black;0;0;0;0;0;0;0;;;;;
0;—мартфон Xiaomi Redmi 5 Plus 32GB Gold;0;0;0;0;0;0;0;;;;;
0;—мартфон Xiaomi Redmi 5 Plus 64GB Black;0;0;0;0;0;0;0;;;;;
0;—мартфон Xiaomi Redmi 5 Plus 64GB Gold;0;0;0;0;0;0;0;;;;;
0;—мартфон Xiaomi Redmi 5A 16GB Gold;0;0;0;0;0;0;0;;;;;
0;—мартфон Xiaomi Redmi 5A 16GB Gray;0;0;0;0;0;0;0;;;;;
0;—мартфон Xiaomi Redmi 5A 16GB Rose Gold;0;0;0;0;0;0;0;;;;;
0;—мартфон Xiaomi Redmi Note 4 Black 32GB;0;0;0;0;0;0;0;;;;;
0;—мартфон Xiaomi Redmi Note 4 Gold 32GB;0;0;0;0;0;0;0;;;;;
0;—мартфон Xiaomi Redmi Note 4 Gray 32GB;0;0;0;0;0;0;0;;;;;
0;—мартфон Xiaomi Redmi Note 4 Black 64GB(QS);0;0;0;0;0;0;0;;;;;
0;—мартфон Xiaomi Redmi Note 4 Gold 64GB(QS);0;0;0;0;0;0;0;;;;;
0;—мартфон Xiaomi Redmi Note 4 Gray 64GB(QS);0;0;0;0;0;0;0;;;;;
0;—мартфон Xiaomi Redmi Note 4 Silver 64GB;0;0;0;0;0;0;0;;;;;
0;—мартфон Xiaomi Redmi Note 4X Gold 32GB(QS);0;0;0;0;0;0;0;;;;;
0;—мартфон Xiaomi Redmi Note 5 32GB Black;0;0;0;0;0;0;0;;;;;
0;—мартфон Xiaomi Redmi Note 5 32GB Gold;0;0;0;0;0;0;0;;;;;
0;—мартфон Xiaomi Redmi Note 5 64GB Black;0;0;0;0;0;0;0;;;;;
0;—мартфон Xiaomi Redmi Note 5 64GB Blue;0;0;0;0;0;0;0;;;;;
0;—мартфон Xiaomi Redmi Note 5 64GB Gold;0;0;0;0;0;0;0;;;;;
0;—мартфон Xiaomi Redmi Note 5A 16GB Gold;0;0;0;0;0;0;0;;;;;
0;—мартфон Xiaomi Redmi Note 5A 16GB Gray;0;0;0;0;0;0;0;;;;;
0;—мартфон Xiaomi Redmi Note 5A 16GB Rose Gold;0;0;0;0;0;0;0;;;;;
0;—мартфон Xiaomi Redmi Note 5A Prime 32 GB  Rose Gold;0;0;0;0;0;0;0;;;;;
0;—мартфон Xiaomi Redmi Note 5A Prime 32 GB Gold;0;0;0;0;0;0;0;;;;;
0;—мартфон Xiaomi Redmi Note 5A Prime 32 GB Grey;0;0;0;0;0;0;0;;;;;
0;—мартфон Xiaomi Redmi Note 5A Prime 64 GB Grey;0;0;0;0;0;0;0;;;;;
0;—мартфон Xiaomi Redmi S2 32GB Grey;0;0;0;0;0;0;0;;;;;
0;—мартфон Xiaomi Redmi S2 64GB Gold;0;0;0;0;0;0;0;;;;;
0;—мартфон Xiaomi Redmi S2 64GB Grey;0;0;0;0;0;0;0;;;;;
