﻿магазин;должность;ФИО продавца;День;Смена
Магазин № 02/001 (ТЦ Мир) Уфа;продавец-консультант;Жуков Кирилл Сергеевич;01.04.2018;I
Магазин № 02/001 (ТЦ Мир) Уфа;продавец-консультант;Петров Антон Владимирович;01.04.2018;II
Магазин № 02/001 (ТЦ Мир) Уфа;продавец-консультант;Симонов Константин Сергеевич;01.04.2018;В
Магазин № 16/001 (Казань);продавец-консультант;Ахметшин И. Г.;01.04.2018;I
